%!PS-Adobe-3.0 EPSF-3.0
%%Creator: (MATLAB, The Mathworks, Inc. Version 8.6.0.267246 \(R2015b\). Operating System: Windows 8)
%%Title: (C:/Users/Stefano Galeano/Documents/Universit\340/Master Thesis/thesis/img/terna_virtuale.eps)
%%CreationDate: 2015-11-14T15:18:18
%%Pages: (atend)
%%BoundingBox: 0 0 960 274
%%LanguageLevel: 2
%%EndComments
%%BeginProlog
%%BeginResource: procset (Apache XML Graphics Std ProcSet) 1.2 0
%%Version: 1.2 0
%%Copyright: (Copyright 2001-2003,2010 The Apache Software Foundation. License terms: http://www.apache.org/licenses/LICENSE-2.0)
/bd{bind def}bind def
/ld{load def}bd
/GR/grestore ld
/M/moveto ld
/LJ/setlinejoin ld
/C/curveto ld
/f/fill ld
/LW/setlinewidth ld
/GC/setgray ld
/t/show ld
/N/newpath ld
/CT/concat ld
/cp/closepath ld
/S/stroke ld
/L/lineto ld
/CC/setcmykcolor ld
/A/ashow ld
/GS/gsave ld
/RC/setrgbcolor ld
/RM/rmoveto ld
/ML/setmiterlimit ld
/re {4 2 roll M
1 index 0 rlineto
0 exch rlineto
neg 0 rlineto
cp } bd
/_ctm matrix def
/_tm matrix def
/BT { _ctm currentmatrix pop matrix _tm copy pop 0 0 moveto } bd
/ET { _ctm setmatrix } bd
/iTm { _ctm setmatrix _tm concat } bd
/Tm { _tm astore pop iTm 0 0 moveto } bd
/ux 0.0 def
/uy 0.0 def
/F {
  /Tp exch def
  /Tf exch def
  Tf findfont Tp scalefont setfont
  /cf Tf def  /cs Tp def
} bd
/ULS {currentpoint /uy exch def /ux exch def} bd
/ULE {
  /Tcx currentpoint pop def
  gsave
  newpath
  cf findfont cs scalefont dup
  /FontMatrix get 0 get /Ts exch def /FontInfo get dup
  /UnderlinePosition get Ts mul /To exch def
  /UnderlineThickness get Ts mul /Tt exch def
  ux uy To add moveto  Tcx uy To add lineto
  Tt setlinewidth stroke
  grestore
} bd
/OLE {
  /Tcx currentpoint pop def
  gsave
  newpath
  cf findfont cs scalefont dup
  /FontMatrix get 0 get /Ts exch def /FontInfo get dup
  /UnderlinePosition get Ts mul /To exch def
  /UnderlineThickness get Ts mul /Tt exch def
  ux uy To add cs add moveto Tcx uy To add cs add lineto
  Tt setlinewidth stroke
  grestore
} bd
/SOE {
  /Tcx currentpoint pop def
  gsave
  newpath
  cf findfont cs scalefont dup
  /FontMatrix get 0 get /Ts exch def /FontInfo get dup
  /UnderlinePosition get Ts mul /To exch def
  /UnderlineThickness get Ts mul /Tt exch def
  ux uy To add cs 10 mul 26 idiv add moveto Tcx uy To add cs 10 mul 26 idiv add lineto
  Tt setlinewidth stroke
  grestore
} bd
/QT {
/Y22 exch store
/X22 exch store
/Y21 exch store
/X21 exch store
currentpoint
/Y21 load 2 mul add 3 div exch
/X21 load 2 mul add 3 div exch
/X21 load 2 mul /X22 load add 3 div
/Y21 load 2 mul /Y22 load add 3 div
/X22 load /Y22 load curveto
} bd
/SSPD {
dup length /d exch dict def
{
/v exch def
/k exch def
currentpagedevice k known {
/cpdv currentpagedevice k get def
v cpdv ne {
/upd false def
/nullv v type /nulltype eq def
/nullcpdv cpdv type /nulltype eq def
nullv nullcpdv or
{
/upd true def
} {
/sametype v type cpdv type eq def
sametype {
v type /arraytype eq {
/vlen v length def
/cpdvlen cpdv length def
vlen cpdvlen eq {
0 1 vlen 1 sub {
/i exch def
/obj v i get def
/cpdobj cpdv i get def
obj cpdobj ne {
/upd true def
exit
} if
} for
} {
/upd true def
} ifelse
} {
v type /dicttype eq {
v {
/dv exch def
/dk exch def
/cpddv cpdv dk get def
dv cpddv ne {
/upd true def
exit
} if
} forall
} {
/upd true def
} ifelse
} ifelse
} if
} ifelse
upd true eq {
d k v put
} if
} if
} if
} forall
d length 0 gt {
d setpagedevice
} if
} bd
%%EndResource
%%BeginResource: procset (Apache XML Graphics EPS ProcSet) 1.0 0
%%Version: 1.0 0
%%Copyright: (Copyright 2002-2003 The Apache Software Foundation. License terms: http://www.apache.org/licenses/LICENSE-2.0)
/BeginEPSF { %def
/b4_Inc_state save def         % Save state for cleanup
/dict_count countdictstack def % Count objects on dict stack
/op_count count 1 sub def      % Count objects on operand stack
userdict begin                 % Push userdict on dict stack
/showpage { } def              % Redefine showpage, { } = null proc
0 setgray 0 setlinecap         % Prepare graphics state
1 setlinewidth 0 setlinejoin
10 setmiterlimit [ ] 0 setdash newpath
/languagelevel where           % If level not equal to 1 then
{pop languagelevel             % set strokeadjust and
1 ne                           % overprint to their defaults.
{false setstrokeadjust false setoverprint
} if
} if
} bd
/EndEPSF { %def
count op_count sub {pop} repeat            % Clean up stacks
countdictstack dict_count sub {end} repeat
b4_Inc_state restore
} bd
%%EndResource
%FOPBeginFontDict
%%IncludeResource: font Courier-Bold
%%IncludeResource: font Helvetica
%%IncludeResource: font Courier-BoldOblique
%%IncludeResource: font Courier-Oblique
%%IncludeResource: font Times-Roman
%%IncludeResource: font Helvetica-BoldOblique
%%IncludeResource: font Helvetica-Bold
%%IncludeResource: font Helvetica-Oblique
%%IncludeResource: font Times-BoldItalic
%%IncludeResource: font Courier
%%IncludeResource: font Times-Italic
%%IncludeResource: font Times-Bold
%%IncludeResource: font Symbol
%%IncludeResource: font ZapfDingbats
%FOPEndFontDict
%%BeginResource: encoding WinAnsiEncoding
/WinAnsiEncoding [
/.notdef /.notdef /.notdef /.notdef /.notdef
/.notdef /.notdef /.notdef /.notdef /.notdef
/.notdef /.notdef /.notdef /.notdef /.notdef
/.notdef /.notdef /.notdef /.notdef /.notdef
/.notdef /.notdef /.notdef /.notdef /.notdef
/.notdef /.notdef /.notdef /.notdef /.notdef
/.notdef /.notdef /space /exclam /quotedbl
/numbersign /dollar /percent /ampersand /quotesingle
/parenleft /parenright /asterisk /plus /comma
/hyphen /period /slash /zero /one
/two /three /four /five /six
/seven /eight /nine /colon /semicolon
/less /equal /greater /question /at
/A /B /C /D /E
/F /G /H /I /J
/K /L /M /N /O
/P /Q /R /S /T
/U /V /W /X /Y
/Z /bracketleft /backslash /bracketright /asciicircum
/underscore /quoteleft /a /b /c
/d /e /f /g /h
/i /j /k /l /m
/n /o /p /q /r
/s /t /u /v /w
/x /y /z /braceleft /bar
/braceright /asciitilde /bullet /Euro /bullet
/quotesinglbase /florin /quotedblbase /ellipsis /dagger
/daggerdbl /circumflex /perthousand /Scaron /guilsinglleft
/OE /bullet /Zcaron /bullet /bullet
/quoteleft /quoteright /quotedblleft /quotedblright /bullet
/endash /emdash /asciitilde /trademark /scaron
/guilsinglright /oe /bullet /zcaron /Ydieresis
/space /exclamdown /cent /sterling /currency
/yen /brokenbar /section /dieresis /copyright
/ordfeminine /guillemotleft /logicalnot /sfthyphen /registered
/macron /degree /plusminus /twosuperior /threesuperior
/acute /mu /paragraph /middot /cedilla
/onesuperior /ordmasculine /guillemotright /onequarter /onehalf
/threequarters /questiondown /Agrave /Aacute /Acircumflex
/Atilde /Adieresis /Aring /AE /Ccedilla
/Egrave /Eacute /Ecircumflex /Edieresis /Igrave
/Iacute /Icircumflex /Idieresis /Eth /Ntilde
/Ograve /Oacute /Ocircumflex /Otilde /Odieresis
/multiply /Oslash /Ugrave /Uacute /Ucircumflex
/Udieresis /Yacute /Thorn /germandbls /agrave
/aacute /acircumflex /atilde /adieresis /aring
/ae /ccedilla /egrave /eacute /ecircumflex
/edieresis /igrave /iacute /icircumflex /idieresis
/eth /ntilde /ograve /oacute /ocircumflex
/otilde /odieresis /divide /oslash /ugrave
/uacute /ucircumflex /udieresis /yacute /thorn
/ydieresis
] def
%%EndResource
%FOPBeginFontReencode
/Courier-Bold findfont
dup length dict begin
  {1 index /FID ne {def} {pop pop} ifelse} forall
  /Encoding WinAnsiEncoding def
  currentdict
end
/Courier-Bold exch definefont pop
/Helvetica findfont
dup length dict begin
  {1 index /FID ne {def} {pop pop} ifelse} forall
  /Encoding WinAnsiEncoding def
  currentdict
end
/Helvetica exch definefont pop
/Courier-BoldOblique findfont
dup length dict begin
  {1 index /FID ne {def} {pop pop} ifelse} forall
  /Encoding WinAnsiEncoding def
  currentdict
end
/Courier-BoldOblique exch definefont pop
/Courier-Oblique findfont
dup length dict begin
  {1 index /FID ne {def} {pop pop} ifelse} forall
  /Encoding WinAnsiEncoding def
  currentdict
end
/Courier-Oblique exch definefont pop
/Times-Roman findfont
dup length dict begin
  {1 index /FID ne {def} {pop pop} ifelse} forall
  /Encoding WinAnsiEncoding def
  currentdict
end
/Times-Roman exch definefont pop
/Helvetica-BoldOblique findfont
dup length dict begin
  {1 index /FID ne {def} {pop pop} ifelse} forall
  /Encoding WinAnsiEncoding def
  currentdict
end
/Helvetica-BoldOblique exch definefont pop
/Helvetica-Bold findfont
dup length dict begin
  {1 index /FID ne {def} {pop pop} ifelse} forall
  /Encoding WinAnsiEncoding def
  currentdict
end
/Helvetica-Bold exch definefont pop
/Helvetica-Oblique findfont
dup length dict begin
  {1 index /FID ne {def} {pop pop} ifelse} forall
  /Encoding WinAnsiEncoding def
  currentdict
end
/Helvetica-Oblique exch definefont pop
/Times-BoldItalic findfont
dup length dict begin
  {1 index /FID ne {def} {pop pop} ifelse} forall
  /Encoding WinAnsiEncoding def
  currentdict
end
/Times-BoldItalic exch definefont pop
/Courier findfont
dup length dict begin
  {1 index /FID ne {def} {pop pop} ifelse} forall
  /Encoding WinAnsiEncoding def
  currentdict
end
/Courier exch definefont pop
/Times-Italic findfont
dup length dict begin
  {1 index /FID ne {def} {pop pop} ifelse} forall
  /Encoding WinAnsiEncoding def
  currentdict
end
/Times-Italic exch definefont pop
/Times-Bold findfont
dup length dict begin
  {1 index /FID ne {def} {pop pop} ifelse} forall
  /Encoding WinAnsiEncoding def
  currentdict
end
/Times-Bold exch definefont pop
%FOPEndFontReencode
%%EndProlog
%%Page: 1 1
%%PageBoundingBox: 0 0 960 274
%%BeginPageSetup
[1 0 0 -1 0 274] CT
%%EndPageSetup
GS
[0.6 0 0 0.6 0 -0.20001] CT
1 GC
N
0 0 1600 457 re
f
GR
GS
[0.6 0 0 0.6 0 -0.20001] CT
1 GC
N
0 0 1600 457 re
f
GR
GS
[0.6 0 0 0.6 0 -0.20001] CT
1 GC
N
208 381 M
1448 381 L
1448 34 L
208 34 L
cp
f
GR
GS
[0.6 0 0 0.6 0 -0.20001] CT
2 setlinecap
1 LJ
0.833 LW
N
208 381 M
1448 381 L
S
GR
GS
[0.6 0 0 0.6 0 -0.20001] CT
2 setlinecap
1 LJ
0.833 LW
N
208 34 M
1448 34 L
S
GR
GS
[0.6 0 0 0.6 0 -0.20001] CT
2 setlinecap
1 LJ
0.833 LW
N
208 381 M
208 368.6 L
S
GR
GS
[0.6 0 0 0.6 0 -0.20001] CT
2 setlinecap
1 LJ
0.833 LW
N
332 381 M
332 368.6 L
S
GR
GS
[0.6 0 0 0.6 0 -0.20001] CT
2 setlinecap
1 LJ
0.833 LW
N
456 381 M
456 368.6 L
S
GR
GS
[0.6 0 0 0.6 0 -0.20001] CT
2 setlinecap
1 LJ
0.833 LW
N
580 381 M
580 368.6 L
S
GR
GS
[0.6 0 0 0.6 0 -0.20001] CT
2 setlinecap
1 LJ
0.833 LW
N
704 381 M
704 368.6 L
S
GR
GS
[0.6 0 0 0.6 0 -0.20001] CT
2 setlinecap
1 LJ
0.833 LW
N
828 381 M
828 368.6 L
S
GR
GS
[0.6 0 0 0.6 0 -0.20001] CT
2 setlinecap
1 LJ
0.833 LW
N
952 381 M
952 368.6 L
S
GR
GS
[0.6 0 0 0.6 0 -0.20001] CT
2 setlinecap
1 LJ
0.833 LW
N
1076 381 M
1076 368.6 L
S
GR
GS
[0.6 0 0 0.6 0 -0.20001] CT
2 setlinecap
1 LJ
0.833 LW
N
1200 381 M
1200 368.6 L
S
GR
GS
[0.6 0 0 0.6 0 -0.20001] CT
2 setlinecap
1 LJ
0.833 LW
N
1324 381 M
1324 368.6 L
S
GR
GS
[0.6 0 0 0.6 0 -0.20001] CT
2 setlinecap
1 LJ
0.833 LW
N
1448 381 M
1448 368.6 L
S
GR
GS
[0.6 0 0 0.6 0 -0.20001] CT
2 setlinecap
1 LJ
0.833 LW
N
208 34 M
208 46.4 L
S
GR
GS
[0.6 0 0 0.6 0 -0.20001] CT
2 setlinecap
1 LJ
0.833 LW
N
332 34 M
332 46.4 L
S
GR
GS
[0.6 0 0 0.6 0 -0.20001] CT
2 setlinecap
1 LJ
0.833 LW
N
456 34 M
456 46.4 L
S
GR
GS
[0.6 0 0 0.6 0 -0.20001] CT
2 setlinecap
1 LJ
0.833 LW
N
580 34 M
580 46.4 L
S
GR
GS
[0.6 0 0 0.6 0 -0.20001] CT
2 setlinecap
1 LJ
0.833 LW
N
704 34 M
704 46.4 L
S
GR
GS
[0.6 0 0 0.6 0 -0.20001] CT
2 setlinecap
1 LJ
0.833 LW
N
828 34 M
828 46.4 L
S
GR
GS
[0.6 0 0 0.6 0 -0.20001] CT
2 setlinecap
1 LJ
0.833 LW
N
952 34 M
952 46.4 L
S
GR
GS
[0.6 0 0 0.6 0 -0.20001] CT
2 setlinecap
1 LJ
0.833 LW
N
1076 34 M
1076 46.4 L
S
GR
GS
[0.6 0 0 0.6 0 -0.20001] CT
2 setlinecap
1 LJ
0.833 LW
N
1200 34 M
1200 46.4 L
S
GR
GS
[0.6 0 0 0.6 0 -0.20001] CT
2 setlinecap
1 LJ
0.833 LW
N
1324 34 M
1324 46.4 L
S
GR
GS
[0.6 0 0 0.6 0 -0.20001] CT
2 setlinecap
1 LJ
0.833 LW
N
1448 34 M
1448 46.4 L
S
GR
GS
[0.6 0 0 0.6 124.8 233.59999] CT
/Courier 27 F
GS
[1 0 0 1 0 0] CT
-8.5 25 moveto 
1 -1 scale
(0) t 
GR
GR
GS
[0.6 0 0 0.6 199.2 233.59999] CT
/Courier 27 F
GS
[1 0 0 1 0 0] CT
-6 25 moveto 
1 -1 scale
(1) t 
GR
GR
GS
[0.6 0 0 0.6 273.6 233.59999] CT
/Courier 27 F
GS
[1 0 0 1 0 0] CT
-8 25 moveto 
1 -1 scale
(2) t 
GR
GR
GS
[0.6 0 0 0.6 348 233.59999] CT
/Courier 27 F
GS
[1 0 0 1 0 0] CT
-7.5 25 moveto 
1 -1 scale
(3) t 
GR
GR
GS
[0.6 0 0 0.6 422.4 233.59999] CT
/Courier 27 F
GS
[1 0 0 1 0 0] CT
-8 25 moveto 
1 -1 scale
(4) t 
GR
GR
GS
[0.6 0 0 0.6 496.8 233.59999] CT
/Courier 27 F
GS
[1 0 0 1 0 0] CT
-7.5 25 moveto 
1 -1 scale
(5) t 
GR
GR
GS
[0.6 0 0 0.6 571.2 233.59999] CT
/Courier 27 F
GS
[1 0 0 1 0 0] CT
-8 25 moveto 
1 -1 scale
(6) t 
GR
GR
GS
[0.6 0 0 0.6 645.6 233.59999] CT
/Courier 27 F
GS
[1 0 0 1 0 0] CT
-7 25 moveto 
1 -1 scale
(7) t 
GR
GR
GS
[0.6 0 0 0.6 720 233.59999] CT
/Courier 27 F
GS
[1 0 0 1 0 0] CT
-8.5 25 moveto 
1 -1 scale
(8) t 
GR
GR
GS
[0.6 0 0 0.6 794.4 233.59999] CT
/Courier 27 F
GS
[1 0 0 1 0 0] CT
-8 25 moveto 
1 -1 scale
(9) t 
GR
GR
GS
[0.6 0 0 0.6 868.8 233.59999] CT
/Courier 27 F
GS
[1 0 0 1 0 0] CT
-14.5 25 moveto 
1 -1 scale
(10) t 
GR
GR
GS
[0.6 0 0 0.6 496.80037 253.80001] CT
/Courier 29 F
GS
[1 0 0 1 0 0] CT
-5.5 27 moveto 
1 -1 scale
(t) t 
GR
GR
GS
[0.6 0 0 0.6 0 -0.20001] CT
2 setlinecap
1 LJ
0.833 LW
N
208 381 M
208 34 L
S
GR
GS
[0.6 0 0 0.6 0 -0.20001] CT
2 setlinecap
1 LJ
0.833 LW
N
1448 381 M
1448 34 L
S
GR
GS
[0.6 0 0 0.6 0 -0.20001] CT
2 setlinecap
1 LJ
0.833 LW
N
208 381 M
220.4 381 L
S
GR
GS
[0.6 0 0 0.6 0 -0.20001] CT
2 setlinecap
1 LJ
0.833 LW
N
208 311.6 M
220.4 311.6 L
S
GR
GS
[0.6 0 0 0.6 0 -0.20001] CT
2 setlinecap
1 LJ
0.833 LW
N
208 242.2 M
220.4 242.2 L
S
GR
GS
[0.6 0 0 0.6 0 -0.20001] CT
2 setlinecap
1 LJ
0.833 LW
N
208 172.8 M
220.4 172.8 L
S
GR
GS
[0.6 0 0 0.6 0 -0.20001] CT
2 setlinecap
1 LJ
0.833 LW
N
208 103.4 M
220.4 103.4 L
S
GR
GS
[0.6 0 0 0.6 0 -0.20001] CT
2 setlinecap
1 LJ
0.833 LW
N
208 34 M
220.4 34 L
S
GR
GS
[0.6 0 0 0.6 0 -0.20001] CT
2 setlinecap
1 LJ
0.833 LW
N
1448 381 M
1435.6 381 L
S
GR
GS
[0.6 0 0 0.6 0 -0.20001] CT
2 setlinecap
1 LJ
0.833 LW
N
1448 311.6 M
1435.6 311.6 L
S
GR
GS
[0.6 0 0 0.6 0 -0.20001] CT
2 setlinecap
1 LJ
0.833 LW
N
1448 242.2 M
1435.6 242.2 L
S
GR
GS
[0.6 0 0 0.6 0 -0.20001] CT
2 setlinecap
1 LJ
0.833 LW
N
1448 172.8 M
1435.6 172.8 L
S
GR
GS
[0.6 0 0 0.6 0 -0.20001] CT
2 setlinecap
1 LJ
0.833 LW
N
1448 103.4 M
1435.6 103.4 L
S
GR
GS
[0.6 0 0 0.6 0 -0.20001] CT
2 setlinecap
1 LJ
0.833 LW
N
1448 34 M
1435.6 34 L
S
GR
GS
[0.6 0 0 0.6 119.6 228.4] CT
/Courier 27 F
GS
[1 0 0 1 0 0] CT
-17 9.5 moveto 
1 -1 scale
(0) t 
GR
GR
GS
[0.6 0 0 0.6 119.6 186.76] CT
/Courier 27 F
GS
[1 0 0 1 0 0] CT
-39 9.5 moveto 
1 -1 scale
(0.2) t 
GR
GR
GS
[0.6 0 0 0.6 119.6 145.11999] CT
/Courier 27 F
GS
[1 0 0 1 0 0] CT
-40 9.5 moveto 
1 -1 scale
(0.4) t 
GR
GR
GS
[0.6 0 0 0.6 119.6 103.47999] CT
/Courier 27 F
GS
[1 0 0 1 0 0] CT
-40 9.5 moveto 
1 -1 scale
(0.6) t 
GR
GR
GS
[0.6 0 0 0.6 119.6 61.83999] CT
/Courier 27 F
GS
[1 0 0 1 0 0] CT
-40 9.5 moveto 
1 -1 scale
(0.8) t 
GR
GR
GS
[0.6 0 0 0.6 119.6 20.19999] CT
/Courier 27 F
GS
[1 0 0 1 0 0] CT
-12 9.5 moveto 
1 -1 scale
(1) t 
GR
GR
GS
[0 -0.6 0.6 0 92.6 135.09989] CT
/Courier 29 F
GS
[1 0 0 1 0 0] CT
-185.5 -7 moveto 
1 -1 scale
(% raggiungimento obbiettivo) t 
GR
GR
GS
[0.6 0 0 0.6 0 -0.20001] CT
0 0.447 0.741 RC
1 LJ
0.833 LW
N
208 381 M
220.4 380.914 L
232.8 380.658 L
245.2 380.23 L
257.6 379.632 L
270 378.864 L
282.4 377.927 L
294.8 376.822 L
307.2 375.549 L
319.6 374.111 L
332 372.508 L
344.4 370.743 L
356.8 368.816 L
369.2 366.73 L
381.6 364.487 L
394 362.09 L
406.4 359.539 L
418.8 356.839 L
431.2 353.991 L
443.6 350.998 L
456 347.864 L
468.4 344.592 L
480.8 341.184 L
493.2 337.644 L
505.6 333.976 L
518 330.183 L
530.4 326.269 L
542.8 322.238 L
555.2 318.093 L
567.6 313.839 L
580 309.481 L
592.4 305.021 L
604.8 300.466 L
617.2 295.819 L
629.6 291.084 L
642 286.267 L
654.4 281.373 L
666.8 276.405 L
679.2 271.37 L
691.6 266.271 L
704 261.114 L
716.4 255.905 L
728.8 250.648 L
741.2 245.348 L
753.6 240.011 L
766 234.641 L
778.4 229.245 L
790.8 223.828 L
803.2 218.394 L
815.6 212.95 L
S
GR
GS
[0.6 0 0 0.6 0 -0.20001] CT
0 0.447 0.741 RC
1 LJ
0.833 LW
N
803.2 218.394 M
815.6 212.95 L
828 207.5 L
840.4 202.05 L
852.8 196.606 L
865.2 191.172 L
877.6 185.755 L
890 180.359 L
902.4 174.989 L
914.8 169.652 L
927.2 164.352 L
939.6 159.095 L
952 153.886 L
964.4 148.729 L
976.8 143.63 L
989.2 138.595 L
1001.6 133.627 L
1014 128.733 L
1026.4 123.916 L
1038.8 119.181 L
1051.2 114.534 L
1063.6 109.979 L
1076 105.519 L
1088.4 101.161 L
1100.8 96.907 L
1113.2 92.762 L
1125.6 88.731 L
1138 84.817 L
1150.4 81.024 L
1162.8 77.356 L
1175.2 73.816 L
1187.6 70.408 L
1200 67.136 L
1212.4 64.002 L
1224.8 61.009 L
1237.2 58.161 L
1249.6 55.461 L
1262 52.91 L
1274.4 50.513 L
1286.8 48.27 L
1299.2 46.184 L
1311.6 44.257 L
1324 42.492 L
1336.4 40.889 L
1348.8 39.451 L
1361.2 38.178 L
1373.6 37.073 L
1386 36.136 L
1398.4 35.368 L
1410.8 34.77 L
1423.2 34.342 L
1435.6 34.086 L
S
GR
GS
[0.6 0 0 0.6 0 -0.20001] CT
0 0.447 0.741 RC
1 LJ
0.833 LW
N
1423.2 34.342 M
1435.6 34.086 L
1448 34 L
S
GR
%%Trailer
%%Pages: 1
%%EOF
